<svg xmlns="http://www.w3.org/2000/svg" width="17.692" height="10.91" viewBox="0 0 17.692 10.91">
  <path id="path" d="M21.628,8.6l-6.782,6.782L8.064,8.6,6,10.664l8.846,8.846,8.846-8.846Z" transform="translate(-6 -8.6)" fill="#fff" fill-rule="evenodd" opacity="0.997"/>
</svg>
