<svg xmlns="http://www.w3.org/2000/svg" width="30.171" height="28.285" viewBox="0 0 30.171 28.285">
  <g id="ic_camera" transform="translate(-540 -469.357)">
    <path id="Path_1" data-name="Path 1" d="M15.085,18.857a3.771,3.771,0,1,0-3.771-3.771A3.782,3.782,0,0,0,15.085,18.857Zm0-11.314a7.543,7.543,0,1,1-7.543,7.543A7.565,7.565,0,0,1,15.085,7.543ZM26.4,28.285H3.771a3.723,3.723,0,0,1-2.64-1.131A3.723,3.723,0,0,1,0,24.514V7.543A3.782,3.782,0,0,1,3.771,3.771H6.788L9.617.943A3.123,3.123,0,0,1,11.88,0h6.6a3.028,3.028,0,0,1,2.074.943l2.829,2.829H26.4a3.782,3.782,0,0,1,3.771,3.771V24.514A3.782,3.782,0,0,1,26.4,28.285Z" transform="translate(540 469.357)" fill="#2699fb" fill-rule="evenodd"/>
    <path id="Path_126" data-name="Path 126" d="M15.085,18.857a3.771,3.771,0,1,0-3.771-3.771A3.782,3.782,0,0,0,15.085,18.857Zm0-11.314a7.543,7.543,0,1,1-7.543,7.543A7.565,7.565,0,0,1,15.085,7.543ZM26.4,28.285H3.771a3.723,3.723,0,0,1-2.64-1.131A3.723,3.723,0,0,1,0,24.514V7.543A3.782,3.782,0,0,1,3.771,3.771H6.788L9.617.943A3.123,3.123,0,0,1,11.88,0h6.6a3.028,3.028,0,0,1,2.074.943l2.829,2.829H26.4a3.782,3.782,0,0,1,3.771,3.771V24.514A3.782,3.782,0,0,1,26.4,28.285Z" transform="translate(540 469.357)" fill="#2699fb" fill-rule="evenodd"/>
  </g>
</svg>
