<svg xmlns="http://www.w3.org/2000/svg" width="116.099" height="80.904" viewBox="0 0 116.099 80.904">
  <path id="Path_1692" data-name="Path 1692" d="M116.1,0H0L.035,79.159a1.436,1.436,0,0,0,1.4,1.746,1.188,1.188,0,0,0,.2-.014l.033-.005a1.43,1.43,0,0,0,.994-.621l4.434-4.611,4.624,4.81a1.428,1.428,0,0,0,2.064,0l4.622-4.81,4.624,4.81a1.428,1.428,0,0,0,2.064,0l4.622-4.81,4.624,4.81a1.428,1.428,0,0,0,2.064,0l4.622-4.81,4.624,4.81a1.434,1.434,0,0,0,1.032.441l.052,0,.027,0a1.188,1.188,0,0,0,.2-.014l.035-.005a1.43,1.43,0,0,0,.994-.621l4.393-4.57,4.584,4.769a1.434,1.434,0,0,0,1.032.441l.041,0,.041,0a1.423,1.423,0,0,0,1.032-.441l4.584-4.769,4.584,4.769a1.435,1.435,0,0,0,1.008.436c.035,0,.071.005.106.005a1.423,1.423,0,0,0,1.032-.441l4.622-4.81,4.624,4.81a1.428,1.428,0,0,0,2.064,0l4.622-4.81,4.624,4.81a1.428,1.428,0,0,0,2.064,0l4.622-4.81,4.622,4.81a1.428,1.428,0,0,0,2.064,0l4.624-4.81,4.622,4.81a1.435,1.435,0,0,0,2.467-1Z" fill="#006a72"/>
</svg>
